<svg width="70" height="69" viewBox="0 0 70 69" fill="none" xmlns="http://www.w3.org/2000/svg">
<path d="M38.42 20.52H35.6156C31.8194 20.52 28.16 24.624 28.16 27.9072V34.2L17.9 44.46V34.2H11.06C7.29797 34.2 4.21997 31.122 4.21997 27.36V10.26C4.21997 6.49804 7.29797 3.42004 11.06 3.42004H31.58C35.342 3.42004 38.42 6.49804 38.42 10.26V20.52ZM38.42 23.94H58.94C62.702 23.94 65.78 27.018 65.78 30.78V47.88C65.78 51.642 62.702 54.72 58.94 54.72H52.1V64.98L41.84 54.72H38.42C34.658 54.72 31.58 51.642 31.58 47.88V30.78C31.58 27.018 34.658 23.94 38.42 23.94Z" fill="#A5D9A1"/>
</svg>
