<svg width="64" height="79" viewBox="0 0 64 79" fill="none" xmlns="http://www.w3.org/2000/svg">
<path d="M7.0702 15.22L9.5002 25.57L7.0702 35.875L16.1152 41.455L21.6502 50.5L32.0002 48.07L42.3502 50.5L47.8852 41.455L56.9302 35.875L54.5002 25.57L56.9302 15.22L47.9302 9.64L42.3502 0.595001L32.0002 3.07L21.6952 0.640001L16.0702 9.64L7.0702 15.22ZM32.0452 43.75C27.2713 43.75 22.6929 41.8536 19.3173 38.4779C15.9416 35.1023 14.0452 30.5239 14.0452 25.75C14.0452 20.9761 15.9416 16.3977 19.3173 13.0221C22.6929 9.64643 27.2713 7.75 32.0452 7.75C41.9452 7.75 50.0002 15.805 50.0002 25.705C50.0002 35.695 41.9452 43.75 32.0452 43.75ZM31.9552 39.25C24.4852 39.25 18.5002 33.22 18.5002 25.75C18.5002 18.325 24.4852 12.25 31.9552 12.25C39.4252 12.25 45.5002 18.325 45.5002 25.75C45.5002 33.22 39.4252 39.25 31.9552 39.25ZM49.2352 44.2L43.4752 54.28L34.1152 52.165L45.5002 78.4L51.8002 68.5H63.0502L49.2352 44.2ZM14.5852 44.515L20.2102 54.64L29.7952 52.345L18.5002 78.4L12.2002 68.5H0.950195L14.5852 44.515Z" fill="#A5D9A1"/>
</svg>
