<svg width="23" height="23" viewBox="0 0 23 23" fill="none" xmlns="http://www.w3.org/2000/svg">
<path d="M20.0938 16.2977V13.0625C20.0938 12.6481 19.9291 12.2507 19.6361 11.9576C19.3431 11.6646 18.9457 11.5 18.5313 11.5H12.2813V8.375H13.8438C14.258 8.37459 14.6552 8.20983 14.9482 7.9169C15.2411 7.62396 15.4058 7.22677 15.4063 6.8125V2.125C15.4058 1.71073 15.2411 1.31354 14.9482 1.0206C14.6552 0.727667 14.258 0.562914 13.8438 0.5625H9.15626C8.74198 0.562914 8.3448 0.727667 8.05186 1.0206C7.75892 1.31354 7.59417 1.71073 7.59376 2.125V6.8125C7.59417 7.22677 7.75892 7.62396 8.05186 7.9169C8.3448 8.20983 8.74198 8.37459 9.15626 8.375H10.7188V11.5H4.46876C4.05436 11.5 3.65693 11.6646 3.3639 11.9576C3.07088 12.2507 2.90626 12.6481 2.90626 13.0625V16.2984C2.16981 16.4886 1.52798 16.9408 1.1011 17.5703C0.674215 18.1998 0.491575 18.9634 0.587415 19.718C0.683254 20.4725 1.05099 21.1662 1.6217 21.669C2.19241 22.1718 2.9269 22.4492 3.68751 22.4492C4.44811 22.4492 5.18261 22.1718 5.75331 21.669C6.32402 21.1662 6.69176 20.4725 6.7876 19.718C6.88344 18.9634 6.7008 18.1998 6.27392 17.5703C5.84703 16.9408 5.20521 16.4886 4.46876 16.2984V13.0625H10.7188V16.2984C9.98231 16.4886 9.34048 16.9408 8.9136 17.5703C8.48671 18.1998 8.30408 18.9634 8.39991 19.718C8.49575 20.4725 8.86349 21.1662 9.4342 21.669C10.0049 22.1718 10.7394 22.4492 11.5 22.4492C12.2606 22.4492 12.9951 22.1718 13.5658 21.669C14.1365 21.1662 14.5043 20.4725 14.6001 19.718C14.6959 18.9634 14.5133 18.1998 14.0864 17.5703C13.6595 16.9408 13.0177 16.4886 12.2813 16.2984V13.0625H18.5313V16.2977C17.7948 16.4878 17.153 16.94 16.7261 17.5695C16.2992 18.1991 16.1166 18.9626 16.2124 19.7172C16.3083 20.4717 16.676 21.1654 17.2467 21.6682C17.8174 22.171 18.5519 22.4484 19.3125 22.4484C20.0731 22.4484 20.8076 22.171 21.3783 21.6682C21.949 21.1654 22.3168 20.4717 22.4126 19.7172C22.5084 18.9626 22.3258 18.1991 21.8989 17.5695C21.472 16.94 20.8302 16.4878 20.0938 16.2977ZM9.15626 2.125H13.8438L13.8445 6.8125H9.15626V2.125ZM5.25001 19.3125C5.25001 19.6215 5.15837 19.9236 4.98668 20.1806C4.81499 20.4375 4.57096 20.6378 4.28545 20.7561C3.99994 20.8743 3.68577 20.9053 3.38268 20.845C3.07958 20.7847 2.80117 20.6359 2.58265 20.4174C2.36413 20.1988 2.21532 19.9204 2.15503 19.6173C2.09474 19.3142 2.12568 19.0001 2.24395 18.7146C2.36221 18.429 2.56248 18.185 2.81943 18.0133C3.07638 17.8416 3.37847 17.75 3.68751 17.75C4.10178 17.7504 4.49897 17.9152 4.7919 18.2081C5.08484 18.501 5.24959 18.8982 5.25001 19.3125ZM13.0625 19.3125C13.0625 19.6215 12.9709 19.9236 12.7992 20.1806C12.6275 20.4375 12.3835 20.6378 12.098 20.7561C11.8124 20.8743 11.4983 20.9053 11.1952 20.845C10.8921 20.7847 10.6137 20.6359 10.3952 20.4174C10.1766 20.1988 10.0278 19.9204 9.96753 19.6173C9.90724 19.3142 9.93818 19.0001 10.0564 18.7146C10.1747 18.429 10.375 18.185 10.6319 18.0133C10.8889 17.8416 11.191 17.75 11.5 17.75C11.9142 17.7506 12.3113 17.9154 12.6042 18.2083C12.8971 18.5012 13.0619 18.8983 13.0625 19.3125ZM19.3125 20.875C19.0035 20.875 18.7014 20.7834 18.4444 20.6117C18.1875 20.44 17.9872 20.196 17.8689 19.9104C17.7507 19.6249 17.7197 19.3108 17.78 19.0077C17.8403 18.7046 17.9891 18.4262 18.2077 18.2076C18.4262 17.9891 18.7046 17.8403 19.0077 17.78C19.3108 17.7197 19.6249 17.7507 19.9104 17.8689C20.196 17.9872 20.44 18.1875 20.6117 18.4444C20.7834 18.7014 20.875 19.0035 20.875 19.3125C20.8746 19.7268 20.7098 20.124 20.4169 20.4169C20.124 20.7098 19.7268 20.8746 19.3125 20.875Z" fill="black"/>
</svg>
